YOURNAME Data Analysis Portfolio – Tidy Tuesday Exercise
…
# A tibble: 6 × 8
  season    week                 order contestant song  artist song_theme result
  <chr>     <chr>                <dbl> <chr>      <chr> <chr>  <chr>      <chr> 
1 Season_01 20020618_top_30_gro…     1 Tamyra Gr… And … Jenni… <NA>       Advan…
2 Season_01 20020618_top_30_gro…     2 Jim Verra… When… Doris… <NA>       Advan…
3 Season_01 20020618_top_30_gro…     3 Adriel He… I'll… Edwin… <NA>       Elimi…
4 Season_01 20020618_top_30_gro…     4 Rodesia E… Dayd… The M… <NA>       Elimi…
5 Season_01 20020618_top_30_gro…     5 Natalie B… Crazy Patsy… <NA>       Elimi…
6 Season_01 20020618_top_30_gro…     6 Brad Estr… Just… James… <NA>       Elimi…

head(tuesdata)

$auditions
# A tibble: 142 × 12
   season audition_date_start audition_date_end audition_city     audition_venue
    <dbl> <date>              <date>            <chr>             <chr>         
 1      1 2002-04-20          2002-04-22        Los Angeles, Cal… Westin Bonave…
 2      1 2002-04-23          2002-04-25        Seattle, Washing… Hyatt Regency…
 3      1 2002-04-26          2002-04-28        Chicago, Illinois Congress Plaz…
 4      1 2002-04-29          2002-05-01        New York City, N… Millenium Hil…
 5      1 2002-05-03          2002-05-05        Atlanta, Georgia  AmericasMart/…
 6      1 2002-05-05          2002-05-07        Dallas, Texas     Wyndham Anato…
 7      1 2002-05-11          2002-05-11        Miami, Florida    Fontainebleau…
 8      2 2002-10-21          2002-10-21        Detroit, Michigan Atheneum Suit…
 9      2 2002-10-24          2002-10-28        New York, New Yo… Regent Wall S…
10      2 2002-10-27          2002-10-27        Atlanta, Georgia  AmericasMart  
# ℹ 132 more rows
# ℹ 7 more variables: episodes <chr>, episode_air_date <chr>,
#   callback_venue <chr>, callback_date_start <date>, callback_date_end <date>,
#   tickets_to_hollywood <dbl>, guest_judge <chr>

$eliminations
# A tibble: 456 × 46
   season place gender contestant       top_36 top_36_2 top_36_3 top_36_4 top_32
    <dbl> <chr> <chr>  <chr>            <chr>  <chr>    <chr>    <chr>    <chr> 
 1      1 1     Female Kelly Clarkson   <NA>   <NA>     <NA>     <NA>     <NA>  
 2      1 2     Male   Justin Guarini   <NA>   <NA>     <NA>     <NA>     <NA>  
 3      1 3     Female Nikki McKibbin   <NA>   <NA>     <NA>     <NA>     <NA>  
 4      1 4     Female Tamyra Gray      <NA>   <NA>     <NA>     <NA>     <NA>  
 5      1 5     Male   R. J. Helton     <NA>   <NA>     <NA>     <NA>     <NA>  
 6      1 6     Female Christina Chris… <NA>   <NA>     <NA>     <NA>     <NA>  
 7      1 7     Female Ryan Starr       <NA>   <NA>     <NA>     <NA>     <NA>  
 8      1 8     Male   AJ Gil           <NA>   <NA>     <NA>     <NA>     <NA>  
 9      1 9–10  Male   EJay Day         <NA>   <NA>     <NA>     <NA>     <NA>  
10      1 9–10  Male   Jim Verraros     <NA>   <NA>     <NA>     <NA>     <NA>  
# ℹ 446 more rows
# ℹ 37 more variables: top_32_2 <chr>, top_32_3 <chr>, top_32_4 <chr>,
#   top_30 <chr>, top_30_2 <chr>, top_30_3 <chr>, top_25 <chr>, top_25_2 <chr>,
#   top_25_3 <chr>, top_24 <chr>, top_24_2 <chr>, top_24_3 <chr>, top_20 <chr>,
#   top_20_2 <chr>, top_16 <chr>, top_14 <chr>, top_13 <chr>, top_12 <chr>,
#   top_11 <chr>, top_11_2 <chr>, wildcard <chr>, comeback <lgl>, top_10 <chr>,
#   top_9 <chr>, top_9_2 <chr>, top_8 <chr>, top_8_2 <chr>, top_7 <chr>, …

$finalists
# A tibble: 190 × 6
   Contestant          Birthday  Birthplace          Hometown Description Season
   <chr>               <chr>     <chr>               <chr>    <chr>        <dbl>
 1 Kelly Clarkson      24-Apr-82 Fort Worth, Texas   Burleso… "She perfo…      1
 2 Justin Guarini      28-Oct-78 Columbus, Georgia   Doylest… "He perfor…      1
 3 Nikki McKibbin      28-Sep-78 Grand Prairie, Tex… <NA>     "She had p…      1
 4 Tamyra Gray         26-Jul-79 Takoma Park, Maryl… Atlanta… "She had a…      1
 5 R. J. Helton        17-May-81 Pasadena, Texas     Cumming… "J. Helton…      1
 6 Christina Christian 21-Jun-81 Brooklyn, New York  <NA>     ".Christin…      1
 7 Ryan Starr          21-Nov-82 Sunland, California <NA>     "Her audit…      1
 8 AJ Gil              5-Jul-84  San Diego, Califor… Tacoma,…  <NA>            1
 9 Jim Verraros        8-Feb-83  Chicago, Illinois   <NA>     "He grew u…      1
10 EJay Day            13-Sep-81 Lawrenceville, Geo… <NA>     "He auditi…      1
# ℹ 180 more rows

$ratings
# A tibble: 593 × 17
   season show_number episode   airdate `18_49_rating_share` viewers_in_millions
    <dbl>       <dbl> <chr>     <chr>   <chr>                              <dbl>
 1      1           1 Auditions June 1… 4.8                                 9.85
 2      1           2 Hollywoo… June 1… 5.2                                11.2 
 3      1           3 Top 30: … June 1… 5.2                                10.3 
 4      1           4 Top 30: … June 1… 4.7                                 9.47
 5      1           5 Top 30: … June 2… 4.5                                 9.08
 6      1           6 Top 30: … June 2… 4.2                                 8.53
 7      1           7 Top 30: … July 2… 5.3                                10.3 
 8      1           8 Top 30: … July 3… N/A                                 7.5 
 9      1           9 Wildcard… July 1… 4.1                                 8.97
10      1          10 Top 10 P… July 1… 5.3                                10.3 
# ℹ 583 more rows
# ℹ 11 more variables: timeslot_et <chr>, dvr_18_49 <chr>,
#   dvr_viewers_millions <chr>, total_18_49 <chr>,
#   total_viewers_millions <chr>, weekrank <chr>, ref <lgl>, share <chr>,
#   nightlyrank <dbl>, rating_share_households <chr>, rating_share <chr>
…
$songs
# A tibble: 2,429 × 8
   season    week                order contestant song  artist song_theme result
   <chr>     <chr>               <dbl> <chr>      <chr> <chr>  <chr>      <chr> 
 1 Season_01 20020618_top_30_gr…     1 Tamyra Gr… And … Jenni… <NA>       Advan…
 2 Season_01 20020618_top_30_gr…     2 Jim Verra… When… Doris… <NA>       Advan…
 3 Season_01 20020618_top_30_gr…     3 Adriel He… I'll… Edwin… <NA>       Elimi…
 4 Season_01 20020618_top_30_gr…     4 Rodesia E… Dayd… The M… <NA>       Elimi…
 5 Season_01 20020618_top_30_gr…     5 Natalie B… Crazy Patsy… <NA>       Elimi…
 6 Season_01 20020618_top_30_gr…     6 Brad Estr… Just… James… <NA>       Elimi…
 7 Season_01 20020618_top_30_gr…     7 Ryan Starr The … The K… <NA>       Advan…
 8 Season_01 20020618_top_30_gr…     8 Justinn W… When… Percy… <NA>       Elimi…
 9 Season_01 20020618_top_30_gr…     9 Kelli Glo… I Wi… Dolly… <NA>       Wild …
10 Season_01 20020618_top_30_gr…    10 Christoph… Stil… Brian… <NA>       Wild …
# ℹ 2,419 more rows
…
