Cameron Playle Data Analysis Portfolio – R Coding Exercise
…
The chart imply a positive correlation between fertility and infant mortality as well as a positive correlation between population and gdp. We do see some gaps so we can isolate by grouping together population sizes. Furthermore we can group these by populations larger than 50,000

africadata %>%
  group_by(population) %>%
  summarize(
    missing_im = sum(is.na(gdp))
  )

# A tibble: 2,857 × 2
   population missing_im
        <dbl>      <int>
 1      41538          0
 2      42402          0
 3      43409          0
 4      44515          0
 5      45651          0
 6      46770          0
 7      47851          0
 8      48911          0
 9      49985          0
10      51124          0
# ℹ 2,847 more rows
…
